Lab 05 - Data Wrangling
…
# mean for each station
met_state_lz <- met %>% 
  group_by(USAFID) %>% 
  summarise(
    temp = mean(temp, na.rm = TRUE),
    wind.sp = mean(wind.sp, na.rm = TRUE),
    atm.press = mean(atm.press, na.rm = TRUE),
    STATE = unique(STATE), lat = unique(lat, na.rm = TRUE)[1], lon = unique(lon, na.rm = TRUE)[1]
  ) 
met_state_lz <- na.omit(met_state_lz)
met_state_lz

## Source: local data table [1,595 x 7]
## Call:   `_DT2`[, .(temp = mean(temp, na.rm = TRUE), wind.sp = mean(wind.sp, 
##     na.rm = TRUE), atm.press = mean(atm.press, na.rm = TRUE), 
##     STATE = unique(STATE), lat = unique(lat, na.rm = TRUE)[1], 
##     lon = unique(lon, na.rm = TRUE)[1]), keyby = .(USAFID)]
## 
##   USAFID  temp wind.sp atm.press STATE   lat    lon
##    <int> <dbl>   <dbl>     <dbl> <chr> <dbl>  <dbl>
## 1 690150  33.2    3.48     1010. CA     34.3 -116. 
## 2 720110  31.2    2.14      NaN  TX     30.8  -98.7
## 3 720113  23.3    2.47      NaN  MI     42.5  -83.2
## 4 720120  27.0    2.50      NaN  SC     32.2  -80.7
## 5 720137  21.9    1.98      NaN  IL     41.4  -88.4
## 6 720151  27.6    3.00      NaN  TX     30.4 -104. 
## #  with 1,589 more rows
## 
## # Use as.data.table()/as.data.frame()/as_tibble() to access results
…
met_loc$euclid <- sqrt((met_merge$lon.x -  met_merge$lon.y)^2 + (met_merge$lat.x -  met_merge$lat.y)^2)
met_loc

## Source: local data table [2,377,343 x 4]
## Call:   `_DT4`[, .(lon = mean(lon, na.rm = TRUE), lat = mean(lat, na.rm = TRUE), 
##     STATE = STATE), keyby = .(USAFID)]
## 
##   USAFID   lon   lat STATE
##    <int> <dbl> <dbl> <chr>
## 1 690150 -116.  34.3 CA   
## 2 690150 -116.  34.3 CA   
## 3 690150 -116.  34.3 CA   
## 4 690150 -116.  34.3 CA   
## 5 690150 -116.  34.3 CA   
## 6 690150 -116.  34.3 CA   
## #  with 2,377,337 more rows
## 
## # Use as.data.table()/as.data.frame()/as_tibble() to access results
…
met_temp <- met %>% 
   group_by(STATE)  %>% 
  summarize(n = n(),
            median_temp = quantile(temp, 0.5, na.rm=T),
            median_wind_sp = quantile(wind.sp, 0.5, na.rm=T),
            median_atm_press = quantile(atm.press, 0.5, na.rm=T))
met_temp

## Source: local data table [48 x 5]
## Call:   `_DT7`[, .(n = .N, median_temp = quantile(temp, 0.5, na.rm = TRUE), 
##     median_wind_sp = quantile(wind.sp, 0.5, na.rm = TRUE), median_atm_press = quantile(atm.press, 
##         0.5, na.rm = TRUE)), keyby = .(STATE)]
## 
##   STATE      n median_temp median_wind_sp median_atm_press
##   <chr>  <int>       <dbl>          <dbl>            <dbl>
## 1 AL     44743        25.3            1.5            1015.
## 2 AR     34829        25.6            2.1            1014.
## 3 AZ     34150        29              3.1            1011.
## 4 CA    109392        21.1            2.6            1013.
## 5 CO     78843        18.9            2.6            1014.
## 6 CT     11767        22.2            2.1            1015.
## #  with 42 more rows
## 
## # Use as.data.table()/as.data.frame()/as_tibble() to access results
…
